singlecycle_core/simulations/riscv_waveform.vcd
$date
	Fri Nov 07 18:15:39 2025
$end
$version
	Icarus Verilog
$end
$timescale
	1ps
$end
$scope module tb_riscv_sc $end
$var reg 1 ! clk $end
$var reg 1 " start $end
$scope module riscv_DUT $end
$var wire 1 # branchMuxSel $end
$var wire 1 ! clk $end
$var wire 1 " start $end
$var wire 1 $ zero $end
$var wire 32 % writedata [31:0] $end
$var wire 1 & underflow $end
$var wire 32 ' rs2 [31:0] $end
$var wire 32 ( rs1 [31:0] $end
$var wire 1 ) regwrite $end
$var wire 32 * readata [31:0] $end
$var wire 32 + pco [31:0] $end
$var wire 32 , pci [31:0] $end
$var wire 1 - overflow $end
$var wire 32 . nextPC [31:0] $end
$var wire 1 / memwrite $end
$var wire 1 0 memtoreg $end
$var wire 1 1 memread $end
$var wire 32 2 inst [31:0] $end
$var wire 32 3 imm [31:0] $end
$var wire 1 4 exception $end
$var wire 32 5 branchTarget [31:0] $end
$var wire 1 6 branch $end
$var wire 32 7 B [31:0] $end
$var wire 1 8 ALUsrc $end
$var wire 2 9 ALUop [1:0] $end
$var wire 5 : ALUctl [4:0] $end
$var wire 32 ; ALUOut [31:0] $end
$scope module m_ALU $end
$var wire 32 < and_res [31:0] $end
$var wire 1 ! clk $end
$var wire 1 4 exception $end
$var wire 32 = or_res [31:0] $end
$var wire 1 - overflow $end
$var wire 1 " rst $end
$var wire 1 & underflow $end
$var wire 32 > xor_res [31:0] $end
$var wire 1 $ zero $end
$var wire 32 ? sub_res [31:0] $end
$var wire 32 @ srl_res [31:0] $end
$var wire 32 A sra_res [31:0] $end
$var wire 32 B sltu_res [31:0] $end
$var wire 32 C slt_res [31:0] $end
$var wire 32 D sll_res [31:0] $end
$var wire 1 E fp_underflow $end
$var wire 1 F fp_res_vld $end
$var wire 32 G fp_res [31:0] $end
$var wire 1 H fp_overflow $end
$var wire 1 I fp_exception $end
$var wire 32 J add_res [31:0] $end
$var wire 32 K B [31:0] $end
$var wire 5 L ALUCtl [4:0] $end
$var wire 32 M A [31:0] $end
$var reg 32 N ALUOut [31:0] $end
$var reg 1 O fp_i_vld $end
$var reg 2 P fp_op [1:0] $end
$scope module fpu $end
$var wire 1 ! clk $end
$var wire 1 O i_vld $end
$var wire 2 Q op [1:0] $end
$var wire 1 " rst $end
$var wire 1 E underflow $end
$var wire 1 H overflow $end
$var wire 1 R mul_underflow $end
$var wire 1 S mul_res_vld $end
$var wire 32 T mul_res [31:0] $end
$var wire 1 U mul_overflow $end
$var wire 1 V mul_exception $end
$var wire 32 W i_b [31:0] $end
$var wire 32 X i_a [31:0] $end
$var wire 1 I exception $end
$var wire 32 Y add_res [31:0] $end
$var wire 1 Z add_overflow $end
$var wire 32 [ add_binput [31:0] $end
$var reg 32 \ o_res [31:0] $end
$var reg 1 F o_res_vld $end
$scope module fpadd_u $end
$var wire 1 ] a_larger $end
$var wire 1 ! clk $end
$var wire 32 ^ i_b [31:0] $end
$var wire 1 _ is_inf_a $end
$var wire 1 ` is_inf_b $end
$var wire 1 a is_nan_a $end
$var wire 1 b is_nan_b $end
$var wire 1 c is_zero_a $end
$var wire 1 d is_zero_b $end
$var wire 1 " rst $end
$var wire 1 e same_sign $end
$var wire 1 f sign_small $end
$var wire 1 g sign_large $end
$var wire 1 h sign_b $end
$var wire 1 i sign_a $end
$var wire 25 j mant_sum [24:0] $end
$var wire 24 k mant_small [23:0] $end
$var wire 24 l mant_large [23:0] $end
$var wire 24 m mant_b [23:0] $end
$var wire 24 n mant_aligned [23:0] $end
$var wire 24 o mant_a [23:0] $end
$var wire 32 p i_a [31:0] $end
$var wire 23 q frac_b [22:0] $end
$var wire 23 r frac_a [22:0] $end
$var wire 8 s exp_small [7:0] $end
$var wire 8 t exp_large [7:0] $end
$var wire 8 u exp_diff [7:0] $end
$var wire 8 v exp_b [7:0] $end
$var wire 8 w exp_a [7:0] $end
$var reg 8 x leading_zeros [7:0] $end
$var reg 32 y o_res [31:0] $end
$var reg 1 Z overflow $end
$var reg 8 z result_exp [7:0] $end
$var reg 24 { result_mant [23:0] $end
$var reg 1 | result_overflow $end
$var reg 1 } result_sign $end
$var integer 32 ~ i [31:0] $end
$upscope $end
$scope module mul_u $end
$var wire 32 !" a [31:0] $end
$var wire 32 "" b [31:0] $end
$var wire 1 ! clk $end
$var wire 1 V exception $end
$var wire 1 O i_vld $end
$var wire 1 U overflow $end
$var wire 1 " rst $end
$var wire 1 #" sign $end
$var wire 1 R underflow $end
$var wire 1 $" zero $end
$var wire 9 %" sum_exponent [8:0] $end
$var wire 1 &" round $end
$var wire 48 '" res [47:0] $end
$var wire 48 (" product_normalised [47:0] $end
$var wire 23 )" product_mantissa [22:0] $end
$var wire 48 *" product [47:0] $end
$var wire 24 +" op_b [23:0] $end
$var wire 24 ," op_a [23:0] $end
$var wire 1 -" normalised $end
$var wire 32 ." i_b [31:0] $end
$var wire 32 /" i_a [31:0] $end
$var wire 9 0" exponent [8:0] $end
$var reg 32 1" o_res [31:0] $end
$var reg 1 S o_res_vld $end
$upscope $end
$upscope $end
$upscope $end
$scope module m_ALUCtrl $end
$var wire 3 2" funct3 [2:0] $end
$var wire 7 3" funct7 [6:0] $end
$var wire 2 4" ALUOp [1:0] $end
$var reg 5 5" ALUCtl [4:0] $end
$upscope $end
$scope module m_Adder_1 $end
$var wire 32 6" b [31:0] $end
$var wire 32 7" sum [31:0] $end
$var wire 32 8" a [31:0] $end
$upscope $end
$scope module m_Adder_2 $end
$var wire 32 9" sum [31:0] $end
$var wire 32 :" b [31:0] $end
$var wire 32 ;" a [31:0] $end
$upscope $end
$scope module m_Control $end
$var wire 7 <" opcode [6:0] $end
$var reg 2 =" ALUOp [1:0] $end
$var reg 1 8 ALUSrc $end
$var reg 1 6 branch $end
$var reg 1 1 memRead $end
$var reg 1 / memWrite $end
$var reg 1 0 memtoReg $end
$var reg 1 ) regWrite $end
$upscope $end
$scope module m_DataMemory $end
$var wire 32 >" address [31:0] $end
$var wire 1 ! clk $end
$var wire 1 1 memRead $end
$var wire 1 / memWrite $end
$var wire 1 " rst $end
$var wire 32 ?" writeData [31:0] $end
$var reg 32 @" readData [31:0] $end
$upscope $end
$scope module m_ImmGen $end
$var wire 32 A" inst [31:0] $end
$var reg 32 B" imm [31:0] $end
$upscope $end
$scope module m_InstMem $end
$var wire 32 C" readAddr [31:0] $end
$var wire 32 D" inst [31:0] $end
$upscope $end
$scope module m_Mux_ALU $end
$var wire 32 E" s1 [31:0] $end
$var wire 1 8 sel $end
$var wire 32 F" s0 [31:0] $end
$var wire 32 G" out [31:0] $end
$var parameter 32 H" size $end
$upscope $end
$scope module m_Mux_PC $end
$var wire 32 I" s0 [31:0] $end
$var wire 32 J" s1 [31:0] $end
$var wire 1 # sel $end
$var wire 32 K" out [31:0] $end
$var parameter 32 L" size $end
$upscope $end
$scope module m_Mux_WriteData $end
$var wire 32 M" s0 [31:0] $end
$var wire 32 N" s1 [31:0] $end
$var wire 1 0 sel $end
$var wire 32 O" out [31:0] $end
$var parameter 32 P" size $end
$upscope $end
$scope module m_PC $end
$var wire 1 ! clk $end
$var wire 32 Q" pc_i [31:0] $end
$var wire 1 " rst $end
$var reg 32 R" pc_o [31:0] $end
$upscope $end
$scope module m_Register $end
$var wire 1 ! clk $end
$var wire 5 S" readReg1 [4:0] $end
$var wire 5 T" readReg2 [4:0] $end
$var wire 1 ) regWrite $end
$var wire 1 " rst $end
$var wire 32 U" writeData [31:0] $end
$var wire 5 V" writeReg [4:0] $end
$var wire 32 W" readData2 [31:0] $end
$var wire 32 X" readData1 [31:0] $end
$upscope $end
$upscope $end
$upscope $end
$enddefinitions $end
$comment Show the parameter values. $end
$dumpall
b100000 P"
b100000 L"
b100000 H"
$end
#0
$dumpvars
bx X"
bx W"
bx V"
b0 U"
bx T"
bx S"
bx R"
bx Q"
b0 O"
b0 N"
b0 M"
bx K"
bx J"
bx I"
bx G"
bx F"
bx E"
bx D"
bx C"
bx B"
bx A"
b0 @"
bx ?"
b0 >"
bx ="
bx <"
bx ;"
bx :"
bx 9"
bx 8"
bx 7"
b100 6"
bx 5"
bx 4"
bx 3"
bx 2"
bx 1"
bx 0"
bx /"
bx ."
x-"
bx ,"
bx +"
bx *"
bx )"
bx ("
b0xxxxxxxxxxxxxxxxxxxxxxxxxxxxxxxx '"
x&"
bx %"
x$"
x#"
bx ""
bx !"
bx ~
x}
x|
bx {
bx z
bx y
bx x
bx w
bx v
bx u
bx t
bx s
bx r
bx q
bx p
bx o
bx n
bx m
bx l
bx k
bx j
xi
xh
xg
xf
xe
xd
xc
xb
xa
x`
x_
bx ^
x]
bx \
bx [
xZ
bx Y
bx X
bx W
xV
xU
bx T
xS
xR
b0 Q
b0 P
0O
b0 N
bx M
bx L
bx K
bx J
0I
xH
bx G
xF
0E
bx D
b0x C
b0x B
bx A
bx @
bx ?
bx >
bx =
bx <
b0 ;
bx :
bx 9
x8
bx 7
x6
bx 5
04
bx 3
bx 2
x1
x0
x/
bx .
x-
bx ,
bx +
b0 *
x)
bx (
bx '
0&
b0 %
1$
x#
0"
0!
$end
#5000000000000
b100000000 )"
0U
0R
b111111111111111111110000 {
1&"
b111111111111111111111000 j
b0 n
b10000000 0"
0-"
b11111110 z
b11111111111111111111111111111111 ~
b1 x
0|
1}
0e
b11111111 u
b11111111 t
b0 s
b111111111111111111111000 l
b10000000 k
b11111111111111111111100000000000 ("
1g
0f
0]
0d
0`
1b
b111111111111111111111000 m
b0 '"
b1111111111111111111110000000000 *"
b111111111111111111111000 +"
1h
b11111111 v
b11111111111111111111000 q
0$"
1#"
1V
b10000000 ,"
0c
0_
0a
b10000000 o
b1111000 %
b1111000 O"
b1111000 U"
b11111111 %"
b11111111111111111111111111111000 [
b11111111111111111111111111111000 ^
b1 B
b0 C
b0 A
b0 @
b10000000000000000000000000000000 D
0#
b10000000 r
b0 w
0i
0$
b1111000 ;
b1111000 N
b1111000 >"
b1111000 M"
b11111111111111111111111101111000 >
b11111111111111111111111111111000 =
b10000000 <
b11111111111111111111111111111000 ""
b10001000 ?
b1111000 J
b11111111111111111111111111111000 7
b11111111111111111111111111111000 K
b11111111111111111111111111111000 W
b11111111111111111111111111111000 ."
b11111111111111111111111111111000 G"
b0 :
b0 L
b0 5"
b0 '
b0 ?"
b0 F"
b0 W"
b10000000 !"
b10000000 (
b10000000 M
b10000000 X
b10000000 p
b10000000 /"
b10000000 X"
b0 9
b0 4"
b0 ="
1)
18
0/
00
01
06
b100 ,
b100 K"
b100 Q"
b0 2"
b1111111 3"
b10 V"
b11000 T"
b10 S"
b10011 <"
b11111111111111111111111111111000 5
b11111111111111111111111111111000 9"
b11111111111111111111111111111000 J"
b11111111111111111111111111111000 3
b11111111111111111111111111111000 :"
b11111111111111111111111111111000 B"
b11111111111111111111111111111000 E"
b11111111100000010000000100010011 2
b11111111100000010000000100010011 A"
b11111111100000010000000100010011 D"
0F
b100 .
b100 7"
b100 I"
b0 +
b0 8"
b0 ;"
b0 C"
b0 R"
0S
1!
#10000000000000
0-
0H
0$
b1111000 ;
b1111000 N
b1111000 >"
b1111000 M"
b0 G
b0 \
0Z
b0 Y
b0 y
0!
1"
#15000000000000
b1111100 j
1e
1]
b100 n
b1111100 {
b0 z
b11111111111111111111111111111111 ~
b1 x
0}
b1111000 l
b0 )"
1R
0g
0b
b0 u
b0 t
b100 m
b1111000000 ("
0#"
0V
b100 +"
0h
b0 v
b100 q
b100 k
b110000001 0"
b0 %"
b100 [
b100 ^
b0 B
b111 A
b111 @
b1111100 =
b111100000 *"
b1111000 ,"
b1111000 o
b0 %
b0 O"
b0 U"
b1 :
b1 L
b1 5"
1/
0)
18
b100 ""
b100 7
b100 K
b100 W
b100 ."
b100 G"
b1111000 r
1$
b0 ;
b0 N
b0 >"
b0 M"
b1111100 >
b0 <
b10 2"
b0 3"
b100 V"
b0 T"
b100011 <"
b100 3
b100 :"
b100 B"
b100 E"
b1111000 !"
b11110000000 D
b1110100 ?
b1111100 J
b1111000 (
b1111000 M
b1111000 X
b1111000 p
b1111000 /"
b1111000 X"
b10010001000100011 2
b10010001000100011 A"
b10010001000100011 D"
b1000 ,
b1000 K"
b1000 Q"
b0 T
b0 1"
b1000 5
b1000 9"
b1000 J"
b1000 .
b1000 7"
b1000 I"
b100 +
b100 8"
b100 ;"
b100 C"
b100 R"
1!
#20000000000000
0!
#25000000000000
b1111000 {
b1111000 j
0&"
b0 n
b0 ("
b0 k
1d
b0 m
1$"
b0 *"
b0 +"
b0 q
b0 [
b0 ^
b1111000 A
b1111000 @
b1111000 D
b1111000 >
b1111000 =
b0 ""
b1111000 ?
b1111000 J
b0 7
b0 K
b0 W
b0 ."
b0 G"
b0 V"
b0 3
b0 :"
b0 B"
b0 E"
b10010000000100011 2
b10010000000100011 A"
b10010000000100011 D"
b1100 ,
b1100 K"
b1100 Q"
b1000 5
b1000 9"
b1000 J"
b1100 .
b1100 7"
b1100 I"
b1000 +
b1000 8"
b1000 ;"
b1000 C"
b1000 R"
1!
#30000000000000
0!
#35000000000000
b0 {
b0 j
b0 l
b0 ,"
1c
b0 o
b0 r
b0 >
b0 =
b0 :
b0 L
b0 5"
b0 !"
b0 A
b0 @
b0 D
b0 ?
b0 J
b0 (
b0 M
b0 X
b0 p
b0 /"
b0 X"
1)
18
0/
b0 2"
b1001 V"
b0 S"
b10011 <"
b10010010011 2
b10010010011 A"
b10010010011 D"
b10000 ,
b10000 K"
b10000 Q"
b1100 5
b1100 9"
b1100 J"
b10000 .
b10000 7"
b10000 I"
b1100 +
b1100 8"
b1100 ;"
b1100 C"
b1100 R"
1!
#40000000000000
0!
#45000000000000
b101 V"
b1010010011 2
b1010010011 A"
b1010010011 D"
b10100 ,
b10100 K"
b10100 Q"
b10000 5
b10000 9"
b10000 J"
b10100 .
b10100 7"
b10100 I"
b10000 +
b10000 8"
b10000 ;"
b10000 C"
b10000 R"
1!
#50000000000000
0!
#55000000000000
b1010 {
b1010 l
b1010 j
0]
b0 n
b0 k
0d
b1010 m
b1010 +"
b1010 q
b1010 %
b1010 O"
b1010 U"
b1010 [
b1010 ^
b1 B
b1 C
0$
b1010 ;
b1010 N
b1010 >"
b1010 M"
b1010 >
b1010 =
b1010 ""
b11111111111111111111111111110110 ?
b1010 J
b1010 7
b1010 K
b1010 W
b1010 ."
b1010 G"
b110 V"
b1010 T"
b1010 3
b1010 :"
b1010 B"
b1010 E"
b101000000000001100010011 2
b101000000000001100010011 A"
b101000000000001100010011 D"
b11000 ,
b11000 K"
b11000 Q"
b11110 5
b11110 9"
b11110 J"
b11000 .
b11000 7"
b11000 I"
b10100 +
b10100 8"
b10100 ;"
b10100 C"
b10100 R"
1!
#60000000000000
0!
#65000000000000
b0 n
b0 k
b1010 {
0]
b1010 j
b1010 l
0d
b1010 m
b1010 +"
b1010 q
b1 %
b1 O"
b1 U"
b1010 [
b1010 ^
b1 B
b1 C
0$
b1 ;
b1 N
b1 >"
b1 M"
b1010 >
b1010 =
b1000 :
b1000 L
b1000 5"
b1010 '
b1010 ?"
b1010 F"
b1010 W"
b10 9
b10 4"
b10 ="
1)
08
b1010 ""
b11111111111111111111111111110110 ?
b1010 J
b1010 7
b1010 K
b1010 W
b1010 ."
b1010 G"
b10 2"
b111 V"
b110 T"
b101 S"
b110011 <"
b0 3
b0 :"
b0 B"
b0 E"
b11000101010001110110011 2
b11000101010001110110011 A"
b11000101010001110110011 D"
b11100 ,
b11100 K"
b11100 Q"
b11000 5
b11000 9"
b11000 J"
b11100 .
b11100 7"
b11100 I"
b11000 +
b11000 8"
b11000 ;"
b11000 C"
b11000 R"
1!
#70000000000000
0!
#75000000000000
1]
b1 {
b1 l
0&"
b1 j
1d
b0 m
b0 ("
b0 n
b0 +"
b0 q
b0 k
b0 [
b0 ^
b0 B
b0 C
b1 A
b1 @
1$"
b0 *"
b1 ,"
0c
b1 o
b1 %
b1 O"
b1 U"
b0 ""
b0 7
b0 K
b0 W
b0 ."
b0 G"
b1 r
0$
b1 ;
b1 N
b1 >"
b1 M"
b1 >
b1 =
b1010 :
b1010 L
b1010 5"
b0 '
b0 ?"
b0 F"
b0 W"
b1 !"
b1 D
b1 ?
b1 J
b1 (
b1 M
b1 X
b1 p
b1 /"
b1 X"
16
b1 9
b1 4"
b1 ="
0)
b0 2"
b10000 V"
b0 T"
b111 S"
b1100011 <"
b10000 3
b10000 :"
b10000 B"
b10000 E"
b111000100001100011 2
b111000100001100011 A"
b111000100001100011 D"
b100000 ,
b100000 K"
b100000 Q"
b101100 5
b101100 9"
b101100 J"
b100000 .
b100000 7"
b100000 I"
b11100 +
b11100 8"
b11100 ;"
b11100 C"
b11100 R"
1!
#80000000000000
0!
#85000000000000
b0 {
b0 j
b0 l
b0 ,"
1c
b0 o
b0 %
b0 O"
b0 U"
b0 r
1$
b0 ;
b0 N
b0 >"
b0 M"
b0 >
b0 =
b0 :
b0 L
b0 5"
b0 !"
b0 A
b0 @
b0 D
b0 ?
b0 J
b0 (
b0 M
b0 X
b0 p
b0 /"
b0 X"
1)
b10 9
b10 4"
b10 ="
06
b1001 V"
b101 T"
b1001 S"
b110011 <"
b0 3
b0 :"
b0 B"
b0 E"
b10101001000010010110011 2
b10101001000010010110011 A"
b10101001000010010110011 D"
b100100 ,
b100100 K"
b100100 Q"
b100000 5
b100000 9"
b100000 J"
b100100 .
b100100 7"
b100100 I"
b100000 +
b100000 8"
b100000 ;"
b100000 C"
b100000 R"
1!
#90000000000000
0!
#95000000000000
b1 {
b1 l
b1 j
0]
b0 n
b0 k
0d
b1 m
b1 +"
b1 q
b1 %
b1 O"
b1 U"
b1 [
b1 ^
b1 B
b1 C
0$
b1 ;
b1 N
b1 >"
b1 M"
b1 >
b1 =
b1 ""
b11111111111111111111111111111111 ?
b1 J
b1 7
b1 K
b1 W
b1 ."
b1 G"
18
b0 9
b0 4"
b0 ="
1)
b101 V"
b1 T"
b101 S"
b10011 <"
b1 3
b1 :"
b1 B"
b1 E"
b100101000001010010011 2
b100101000001010010011 A"
b100101000001010010011 D"
b101000 ,
b101000 K"
b101000 Q"
b100101 5
b100101 9"
b100101 J"
b101000 .
b101000 7"
b101000 I"
b100100 +
b100100 8"
b100100 ;"
b100100 C"
b100100 R"
1!
#100000000000000
0!
#105000000000000
b11111111111111111111111111111111 ~
b1 x
1d
1#
1e
b0 {
1R
0b
b0 m
0&"
b0 u
b0 s
b0 l
0f
b0 j
0#"
0V
b0 +"
0h
b0 v
b0 q
b0 ("
1]
b0 n
b110000001 0"
b0 %"
b0 [
b0 ^
b0 =
b0 k
b1010 :
b1010 L
b1010 5"
b1 9
b1 4"
b1 ="
16
0)
08
b0 ""
b0 7
b0 K
b0 W
b0 ."
b0 G"
1$"
b0 *"
b0 ,"
1c
b0 o
b0 %
b0 O"
b0 U"
b1111111 3"
b10001 V"
b0 T"
b0 S"
b1100011 <"
b11111111111111111111111111110000 3
b11111111111111111111111111110000 :"
b11111111111111111111111111110000 B"
b11111111111111111111111111110000 E"
b0 r
b0 B
b0 C
1$
b0 ;
b0 N
b0 >"
b0 M"
b0 >
b0 <
b11111110000000000000100011100011 2
b11111110000000000000100011100011 A"
b11111110000000000000100011100011 D"
b11000 ,
b11000 K"
b11000 Q"
b0 !"
b0 D
b0 ?
b0 J
b0 (
b0 M
b0 X
b0 p
b0 /"
b0 X"
b11000 5
b11000 9"
b11000 J"
b101100 .
b101100 7"
b101100 I"
b101000 +
b101000 8"
b101000 ;"
b101000 C"
b101000 R"
1!
#110000000000000
0!
#115000000000000
1&"
0]
b1 n
b10100 ("
b1 k
b1011 {
0d
b1010 m
b1 %
b1 O"
b1 U"
b1011 j
0$"
b1010 *"
b1010 +"
b1010 q
0$
b1 ;
b1 N
b1 >"
b1 M"
b1010 l
b1010 [
b1010 ^
b1 B
b1 C
b1 ,"
0c
b1 o
0#
b1010 ""
b1010 7
b1010 K
b1010 W
b1010 ."
b1010 G"
b1 r
b1011 >
b1011 =
b1000 :
b1000 L
b1000 5"
b1010 '
b1010 ?"
b1010 F"
b1010 W"
b1 !"
b0 A
b0 @
b10000000000 D
b11111111111111111111111111110111 ?
b1011 J
b1 (
b1 M
b1 X
b1 p
b1 /"
b1 X"
1)
b10 9
b10 4"
b10 ="
06
b10 2"
b0 3"
b111 V"
b110 T"
b101 S"
b110011 <"
b0 3
b0 :"
b0 B"
b0 E"
b11000101010001110110011 2
b11000101010001110110011 A"
b11000101010001110110011 D"
b11100 ,
b11100 K"
b11100 Q"
b11000 5
b11000 9"
b11000 J"
b11100 .
b11100 7"
b11100 I"
b11000 +
b11000 8"
b11000 ;"
b11000 C"
b11000 R"
1!
#120000000000000
0!
#125000000000000
b0 n
b0 k
b1 {
0&"
1]
b1 j
b0 ("
b1 l
1d
b0 m
1$"
b0 *"
b0 +"
b0 q
b0 [
b0 ^
b0 B
b0 C
b1 A
b1 @
b1 D
b1 >
b1 =
0$
b1 ;
b1 N
b1 >"
b1 M"
b0 ""
b1 ?
b1 J
b0 7
b0 K
b0 W
b0 ."
b0 G"
b1010 :
b1010 L
b1010 5"
b0 '
b0 ?"
b0 F"
b0 W"
16
b1 9
b1 4"
b1 ="
0)
b0 2"
b10000 V"
b0 T"
b111 S"
b1100011 <"
b10000 3
b10000 :"
b10000 B"
b10000 E"
b111000100001100011 2
b111000100001100011 A"
b111000100001100011 D"
b100000 ,
b100000 K"
b100000 Q"
b101100 5
b101100 9"
b101100 J"
b100000 .
b100000 7"
b100000 I"
b11100 +
b11100 8"
b11100 ;"
b11100 C"
b11100 R"
1!
#130000000000000
0!
#135000000000000
0]
b0 n
b0 k
b1 {
0d
b1 m
b1 j
b1 +"
b1 q
b1 l
b1 [
b1 ^
b1 B
b1 C
b0 ,"
1c
b0 o
b1 %
b1 O"
b1 U"
b1 ""
b1 7
b1 K
b1 W
b1 ."
b1 G"
b0 r
0$
b1 ;
b1 N
b1 >"
b1 M"
b1 >
b1 =
b0 :
b0 L
b0 5"
b1 '
b1 ?"
b1 F"
b1 W"
b0 !"
b0 A
b0 @
b0 D
b11111111111111111111111111111111 ?
b1 J
b0 (
b0 M
b0 X
b0 p
b0 /"
b0 X"
1)
b10 9
b10 4"
b10 ="
06
b1001 V"
b101 T"
b1001 S"
b110011 <"
b0 3
b0 :"
b0 B"
b0 E"
b10101001000010010110011 2
b10101001000010010110011 A"
b10101001000010010110011 D"
b100100 ,
b100100 K"
b100100 Q"
b100000 5
b100000 9"
b100000 J"
b100100 .
b100100 7"
b100100 I"
b100000 +
b100000 8"
b100000 ;"
b100000 C"
b100000 R"
1!
#140000000000000
0!
#145000000000000
b10 {
1&"
b10 j
b10 ("
1]
b1 n
b1 k
b0 '
b0 ?"
b0 F"
b0 W"
18
b0 9
b0 4"
b0 ="
1)
0$"
b1 *"
b1 ,"
0c
b1 o
b10 %
b10 O"
b10 U"
b101 V"
b1 T"
b101 S"
b10011 <"
b1 3
b1 :"
b1 B"
b1 E"
b1 r
b0 B
b0 C
0$
b10 ;
b10 N
b10 >"
b10 M"
b0 >
b1 <
b100101000001010010011 2
b100101000001010010011 A"
b100101000001010010011 D"
b101000 ,
b101000 K"
b101000 Q"
b1 !"
b10 D
b0 ?
b10 J
b1 (
b1 M
b1 X
b1 p
b1 /"
b1 X"
b100101 5
b100101 9"
b100101 J"
b101000 .
b101000 7"
b101000 I"
b100100 +
b100100 8"
b100100 ;"
b100100 C"
b100100 R"
1!
#150000000000000
0!
#155000000000000
0&"
b11111111111111111111111111111111 ~
b10100 x
1d
1e
1]
b0 n
b0 k
1#
b0 {
1R
0f
0b
b0 u
b0 s
b0 m
b0 ("
b0 j
1$"
1c
0#"
0V
b0 +"
0h
b0 v
b0 q
b0 l
b110000001 0"
b0 %"
b0 [
b0 ^
b0 B
b0 *"
b0 ,"
b0 o
b0 %
b0 O"
b0 U"
b1010 :
b1010 L
b1010 5"
b1 9
b1 4"
b1 ="
16
0)
08
b0 ""
b0 7
b0 K
b0 W
b0 ."
b0 G"
b0 r
1$
b0 ;
b0 N
b0 >"
b0 M"
b0 >
b0 =
b0 <
b1111111 3"
b10001 V"
b0 T"
b0 S"
b1100011 <"
b11111111111111111111111111110000 3
b11111111111111111111111111110000 :"
b11111111111111111111111111110000 B"
b11111111111111111111111111110000 E"
b0 !"
b0 A
b0 @
b0 D
b0 ?
b0 J
b0 (
b0 M
b0 X
b0 p
b0 /"
b0 X"
b11111110000000000000100011100011 2
b11111110000000000000100011100011 A"
b11111110000000000000100011100011 D"
b11000 ,
b11000 K"
b11000 Q"
b11000 5
b11000 9"
b11000 J"
b101100 .
b101100 7"
b101100 I"
b101000 +
b101000 8"
b101000 ;"
b101000 C"
b101000 R"
1!
#160000000000000
0!
#165000000000000
1&"
0]
b10 n
b101000 ("
b10 k
b1100 {
0d
b1010 m
b1 %
b1 O"
b1 U"
b1100 j
0$"
b10100 *"
b1010 +"
b1010 q
0$
b1 ;
b1 N
b1 >"
b1 M"
b1010 l
b1010 [
b1010 ^
b1 B
b1 C
b10 <
b10 ,"
0c
b10 o
0#
b1010 ""
b1010 7
b1010 K
b1010 W
b1010 ."
b1010 G"
b10 r
b1000 >
b1010 =
b1000 :
b1000 L
b1000 5"
b1010 '
b1010 ?"
b1010 F"
b1010 W"
b10 !"
b0 A
b0 @
b100000000000 D
b11111111111111111111111111111000 ?
b1100 J
b10 (
b10 M
b10 X
b10 p
b10 /"
b10 X"
1)
b10 9
b10 4"
b10 ="
06
b10 2"
b0 3"
b111 V"
b110 T"
b101 S"
b110011 <"
b0 3
b0 :"
b0 B"
b0 E"
b11000101010001110110011 2
b11000101010001110110011 A"
b11000101010001110110011 D"
b11100 ,
b11100 K"
b11100 Q"
b11000 5
b11000 9"
b11000 J"
b11100 .
b11100 7"
b11100 I"
b11000 +
b11000 8"
b11000 ;"
b11000 C"
b11000 R"
1!
#170000000000000
0!
#175000000000000
0&"
1]
b1 {
b1 l
b1 j
1d
b0 m
b0 ("
b0 n
1$"
b0 +"
b0 q
b0 k
b0 [
b0 ^
b0 B
b0 C
b1 A
b1 @
b0 *"
b1 ,"
b1 o
b1 %
b1 O"
b1 U"
b0 ""
b0 7
b0 K
b0 W
b0 ."
b0 G"
b1 r
0$
b1 ;
b1 N
b1 >"
b1 M"
b1 >
b1 =
b0 <
b1010 :
b1010 L
b1010 5"
b0 '
b0 ?"
b0 F"
b0 W"
b1 !"
b1 D
b1 ?
b1 J
b1 (
b1 M
b1 X
b1 p
b1 /"
b1 X"
16
b1 9
b1 4"
b1 ="
0)
b0 2"
b10000 V"
b0 T"
b111 S"
b1100011 <"
b10000 3
b10000 :"
b10000 B"
b10000 E"
b111000100001100011 2
b111000100001100011 A"
b111000100001100011 D"
b100000 ,
b100000 K"
b100000 Q"
b101100 5
b101100 9"
b101100 J"
b100000 .
b100000 7"
b100000 I"
b11100 +
b11100 8"
b11100 ;"
b11100 C"
b11100 R"
1!
#180000000000000
0!
#185000000000000
b11 {
b10 l
b11 j
1&"
0]
b1 n
b100 ("
b1 k
0d
b10 m
0$"
b10 *"
b10 +"
b10 q
b11 %
b11 O"
b11 U"
b10 [
b10 ^
b1 B
b1 C
b0 A
b0 @
b100 D
b11 >
b11 =
0$
b11 ;
b11 N
b11 >"
b11 M"
b10 ""
b11111111111111111111111111111111 ?
b11 J
b10 7
b10 K
b10 W
b10 ."
b10 G"
b0 :
b0 L
b0 5"
b10 '
b10 ?"
b10 F"
b10 W"
1)
b10 9
b10 4"
b10 ="
06
b1001 V"
b101 T"
b1001 S"
b110011 <"
b0 3
b0 :"
b0 B"
b0 E"
b10101001000010010110011 2
b10101001000010010110011 A"
b10101001000010010110011 D"
b100100 ,
b100100 K"
b100100 Q"
b100000 5
b100000 9"
b100000 J"
b100100 .
b100100 7"
b100100 I"
b100000 +
b100000 8"
b100000 ;"
b100000 C"
b100000 R"
1!
#190000000000000
0!
#195000000000000
b11 {
b1 m
b11 j
b1 +"
b1 q
b100 ("
1]
b1 n
b1 [
b1 ^
b1 A
b1 @
b1 k
b1 ""
b1 7
b1 K
b1 W
b1 ."
b1 G"
b10 *"
b10 ,"
b10 o
b11 %
b11 O"
b11 U"
b0 '
b0 ?"
b0 F"
b0 W"
18
b0 9
b0 4"
b0 ="
1)
b10 r
b0 B
b0 C
0$
b11 ;
b11 N
b11 >"
b11 M"
b11 >
b0 <
b101 V"
b1 T"
b101 S"
b10011 <"
b1 3
b1 :"
b1 B"
b1 E"
b10 !"
b100 D
b1 ?
b11 J
b10 (
b10 M
b10 X
b10 p
b10 /"
b10 X"
b100101000001010010011 2
b100101000001010010011 A"
b100101000001010010011 D"
b101000 ,
b101000 K"
b101000 Q"
b100101 5
b100101 9"
b100101 J"
b101000 .
b101000 7"
b101000 I"
b100100 +
b100100 8"
b100100 ;"
b100100 C"
b100100 R"
1!
#200000000000000
0!
